Generalized Linear Models with ciTools
…
As seen previously, the commands in ciTools are “pipeable”. Here, we compute confidence and prediction intervals for a model fit at the \(90\%\) level. The warning message only serves to remind the user that precise quantiles cannot be formed for non-continuous distributions.

df_ints <- df %>% 
    add_ci(fit, names = c("lcb", "ucb"), alpha = 0.1) %>%
    add_pi(fit, names = c("lpb", "upb"), alpha = 0.1, nSims = 20000) %>%
    print()

## Warning in add_pi.glm(., fit, names = c("lpb", "upb"), alpha = 0.1, nSims
## = 20000): The response is not continuous, so Prediction Intervals are
## approximate

## # A tibble: 100 x 7
##             x     y      pred       lcb       ucb   lpb   upb
##         <dbl> <int>     <dbl>     <dbl>     <dbl> <dbl> <dbl>
##  1 -2.0519678     2  1.841790  1.512871  2.242220     0     4
##  2 -1.3503557     7  2.579160  2.217452  2.999868     0     6
##  3  0.3743030     2  5.901355  5.502938  6.328618     2    10
##  4  0.4393664     6  6.088538  5.681194  6.525089     2    10
##  5  0.2497295     2  5.558872  5.172883  5.973663     2    10
##  6  2.2621171    18 14.602662 12.696356 16.795192     9    22
##  7  0.7149323    10  6.949438  6.480422  7.452399     3    12
##  8  0.4745805     8  6.192311  5.779338  6.634794     2    10
##  9  1.8237586     7 11.832166 10.558956 13.258901     6    18
## 10 -1.4035391     1  2.514161  2.154300  2.934134     0     5
## # ... with 90 more rows
…
We may also wish to compute response-level probabilities and quantiles. ciTools can also handle these estimates with add_probs() and add_quantile() respectively. We use the same parametric bootstrap approach for estimating quantiles and probabilities that we employed for add_pi(). Once again, an error message reminds the user that their support is not continuous.

df %>%
    add_probs(fit, q = 10) %>%
    add_quantile(fit, p = 0.4) %>%
    print()

## Warning in add_probs.glm(., fit, q = 10): The response is not continuous,
## so estimated probabilities are only approximate

## Warning in add_quantile.glm(., fit, p = 0.4): The response is not
## continuous, so estimated quantiles are only approximate

## # A tibble: 100 x 5
##             x     y      pred prob_less_than10 quantile0.4
##         <dbl> <int>     <dbl>            <dbl>       <dbl>
##  1 -2.0519678     2  1.841790           1.0000           1
##  2 -1.3503557     7  2.579160           0.9995           2
##  3  0.3743030     2  5.901355           0.9035           5
##  4  0.4393664     6  6.088538           0.9200           5
##  5  0.2497295     2  5.558872           0.9410           5
##  6  2.2621171    18 14.602662           0.0910          13
##  7  0.7149323    10  6.949438           0.8350           6
##  8  0.4745805     8  6.192311           0.9055           5
##  9  1.8237586     7 11.832166           0.2640          11
## 10 -1.4035391     1  2.514161           1.0000           2
## # ... with 90 more rows
…
