Binomial Regression with ciTools
…
tb <- tibble(
  x = runif(30, -1, 1),
  n = rbinom(30, 6, .8)
  ) %>%
  mutate(y = rbinom(30, n, (exp(x)/(1 + exp(x)))))

Consider the data set, tb, given below.

tb

## # A tibble: 30 x 3
##              x     n     y
##          <dbl> <int> <int>
##  1 -0.01132681     5     1
##  2 -0.26414193     4     2
##  3 -0.81380816     4     0
##  4  0.55575400     4     3
##  5  0.65899013     6     3
##  6  0.89954037     4     3
##  7 -0.90649045     6     0
##  8  0.04080467     5     1
##  9 -0.87067950     4     3
## 10 -0.84626183     4     1
## # ... with 20 more rows

Here, \(x\) is some predictor variable related to the number of successes, \(y\), for the given number of attempts, \(n\). We can fit a logistic regression to this data to estimate this relationship:

glm(y/n ~ x, data = tb, family = "binomial", weights = n) %>% tidy()

##          term  estimate std.error statistic     p.value
## 1 (Intercept) 0.1040801 0.1767316 0.5889159 0.555917662
## 2           x 0.9449956 0.3159439 2.9910234 0.002780442

We get the same results using different syntax:

tbProb <- mutate(tb, prob = y/n)
tbProb

## # A tibble: 30 x 4
##              x     n     y  prob
##          <dbl> <int> <int> <dbl>
##  1 -0.01132681     5     1  0.20
##  2 -0.26414193     4     2  0.50
##  3 -0.81380816     4     0  0.00
##  4  0.55575400     4     3  0.75
##  5  0.65899013     6     3  0.50
##  6  0.89954037     4     3  0.75
##  7 -0.90649045     6     0  0.00
##  8  0.04080467     5     1  0.20
##  9 -0.87067950     4     3  0.75
## 10 -0.84626183     4     1  0.25
## # ... with 20 more rows

glm(prob ~ x, data = tbProb, family = "binomial", weights = n) %>% tidy()

##          term  estimate std.error statistic     p.value
## 1 (Intercept) 0.1040801 0.1767316 0.5889159 0.555917662
## 2           x 0.9449956 0.3159439 2.9910234 0.002780442

Notably, these fitted values are equivalent to what we would get if we were to transform each of our binomial responses into equivalent sets of Bernoulli trials. For example, the first observation in tb is a single success out of 5 attempts with a covariate of -0.011. Another way to think of this is five Bernoulli trials, one successful, four unsuccessful, all with a covariate value of -0.011.

For example:

tbTall

## # A tibble: 140 x 2
##              x     y
##          <dbl> <dbl>
##  1 -0.01132681     1
##  2 -0.01132681     0
##  3 -0.01132681     0
##  4 -0.01132681     0
##  5 -0.01132681     0
##  6 -0.26414193     1
##  7 -0.26414193     1
##  8 -0.26414193     0
##  9 -0.26414193     0
## 10 -0.81380816     0
## # ... with 130 more rows
…
add_quantile(tb, fit, p = 0.9) 

## Warning in add_quantile.glm(tb, fit, p = 0.9): Treating weights as
## indicating the number of trials for a binomial regression where the
## response is the proportion of successes

## Warning in add_quantile.glm(tb, fit, p = 0.9): The response variable is not
## continuous so Prediction Intervals are approximate

## Warning in sim_quantile_other(tb, fit, p, name, yhatName, nSims): For
## binomial models, add_quantile's column of fitted values reflect E(Y|X)
## rather than typical default for logistic regression, pHat

## # A tibble: 30 x 5
##              x     n     y     pred quantile0.9
##          <dbl> <int> <int>    <dbl>       <dbl>
##  1 -0.01132681     5     1 2.616636           4
##  2 -0.26414193     4     2 1.854723           3
##  3 -0.81380816     4     0 1.358501           3
##  4  0.55575400     4     3 2.609291           4
##  5  0.65899013     6     3 4.044646           6
##  6  0.89954037     4     3 2.887789           4
##  7 -0.90649045     6     0 1.921596           4
##  8  0.04080467     5     1 2.677999           4
##  9 -0.87067950     4     3 1.310710           3
## 10 -0.84626183     4     1 1.331124           3
## # ... with 20 more rows
…
