Mixed models with ciTools
…
Confidence intervals

The first interval we’ll look at is the conditional confidence interval. This is generated using add_ci and using the option includeRanef = TRUE. This option specifies that we want a conditional interval rather than unconditional. The default is includeRanef = FALSE, which will produce an unconditional interval. Recall from above that the conditional interval’s width is driven by both \(SE(\hat{\beta})\) and \(SE(\hat{g})\).

tb %>% add_ci(fit2, type = "parametric", includeRanef = T)

## # A tibble: 200 x 8
##       x1         x2 group          y    truth     pred  LCB0.025 UCB0.975
##    <chr>      <dbl> <chr>      <dbl>    <dbl>    <dbl>     <dbl>    <dbl>
##  1     b 0.02152605     1 2.35197203 2.043052 2.624802 1.7538960 3.495709
##  2     a 0.26034694     1 1.67461276 1.260347 1.783905 0.9674117 2.600398
##  3     b 0.64673143     1 1.97210330 3.293463 3.891876 3.0977243 4.686027
##  4     a 0.69560555     1 0.01130084 1.695606 2.250858 1.4455614 3.056155
##  5     a 0.97354604     1 3.88958362 1.973546 2.549038 1.6819702 3.416106
##  6     a 0.15814781     1 1.96889481 1.158148 1.674264 0.8359544 2.512573
##  7     b 0.69996923     1 2.91540505 3.399938 3.999770 3.2000473 4.799493
##  8     a 0.47460018     1 1.75315212 1.474600 2.013760 1.2198600 2.807659
##  9     a 0.12108729     1 2.37220991 1.121087 1.634504 0.7866570 2.482352
## 10     b 0.78128886     1 5.49925048 3.562578 4.164577 3.3527220 4.976431
## # ... with 190 more rows
…
For comparison, we consider bootstrap confidence intervals obtained by simulating from the fitted model using lme4::bootMer. For this function, the re.form = option is used to fit conditional (re.form = NULL) or unconditional (re.form = NA) intervals. (See ?lme4::bootMer for further information.) In ciTools, these intervals can be obtained by specifying type = boot.

set.seed(20170628)
tb %>%   
  add_ci(fit2, includeRanef = T, type = "parametric", names = c("Lpar", "Upar")) %>%
  add_ci(fit2, includeRanef = T, type = "boot", names = c("Lboot", "Uboot"))

## # A tibble: 200 x 10
##       x1         x2 group          y    truth     pred      Lpar     Upar
##    <chr>      <dbl> <chr>      <dbl>    <dbl>    <dbl>     <dbl>    <dbl>
##  1     b 0.02152605     1 2.35197203 2.043052 2.624802 1.7538960 3.495709
##  2     a 0.26034694     1 1.67461276 1.260347 1.783905 0.9674117 2.600398
##  3     b 0.64673143     1 1.97210330 3.293463 3.891876 3.0977243 4.686027
##  4     a 0.69560555     1 0.01130084 1.695606 2.250858 1.4455614 3.056155
##  5     a 0.97354604     1 3.88958362 1.973546 2.549038 1.6819702 3.416106
##  6     a 0.15814781     1 1.96889481 1.158148 1.674264 0.8359544 2.512573
##  7     b 0.69996923     1 2.91540505 3.399938 3.999770 3.2000473 4.799493
##  8     a 0.47460018     1 1.75315212 1.474600 2.013760 1.2198600 2.807659
##  9     a 0.12108729     1 2.37220991 1.121087 1.634504 0.7866570 2.482352
## 10     b 0.78128886     1 5.49925048 3.562578 4.164577 3.3527220 4.976431
## # ... with 190 more rows, and 2 more variables: Lboot <dbl>, Uboot <dbl>
…
Visually, these intervals look similar, with the parametric interval being wider than the bootstrap interval everywhere. The narrower width for the bootstrap approach comes at the expense of coverage probability, though as the number of groups and size of groups increase, these differences move towards zero. A later section will explore simulation results comparing these two approaches.

We can see that the results for unconditional intervals are also similar between the parametric and bootstrap methods. Unconditional intervals are generated add_ci by using the includeRanef = F option. Note that this is the default setting for includeRanef.

tb %>% add_ci(fit2, includeRanef = F, type = "parametric")

## # A tibble: 200 x 8
##       x1         x2 group          y    truth     pred  LCB0.025 UCB0.975
##    <chr>      <dbl> <chr>      <dbl>    <dbl>    <dbl>     <dbl>    <dbl>
##  1     b 0.02152605     1 2.35197203 2.043052 2.244516 1.5018913 2.987141
##  2     a 0.26034694     1 1.67461276 1.260347 1.403618 0.7256253 2.081612
##  3     b 0.64673143     1 1.97210330 3.293463 3.511589 2.8606745 4.162504
##  4     a 0.69560555     1 0.01130084 1.695606 1.870572 1.2061047 2.535039
##  5     a 0.97354604     1 3.88958362 1.973546 2.168752 1.4306322 2.906871
##  6     a 0.15814781     1 1.96889481 1.158148 1.293977 0.5898636 1.998091
##  7     b 0.69996923     1 2.91540505 3.399938 3.619484 2.9617831 4.277184
##  8     a 0.47460018     1 1.75315212 1.474600 1.633473 0.9828656 2.284081
##  9     a 0.12108729     1 2.37220991 1.121087 1.254218 0.5387748 1.969661
## 10     b 0.78128886     1 5.49925048 3.562578 3.784290 3.1118905 4.456690
## # ... with 190 more rows
…
From this plot, we can see the factor combinations where average system performance is better than the threshold value as well as those where it may not be.

It is inadviseable to include observed data on these plots, since the confidence bounds are estimates of the average and do not reflect either within-group or between-group variability.

Prediction Intervals

Next, we will consider the conditional prediction interval. In addition to the parametric intervals described above an alternative approach is available using the type = "boot" option, which will estimate a prediction interval by simulating data from the fitted model using simulate.merMod.

Graphically, the prediction intervals should look like the conditional confidence intervals only wider:

tb %>% add_pi(fit2, includeRanef = T, type = "parametric")

## # A tibble: 200 x 8
##       x1         x2 group          y    truth     pred     LPB0.025
##    <chr>      <dbl> <chr>      <dbl>    <dbl>    <dbl>        <dbl>
##  1     b 0.02152605     1 2.35197203 2.043052 2.624802  0.357428554
##  2     a 0.26034694     1 1.67461276 1.260347 1.783905 -0.463130422
##  3     b 0.64673143     1 1.97210330 3.293463 3.891876  1.652861824
##  4     a 0.69560555     1 0.01130084 1.695606 2.250858  0.007867148
##  5     a 0.97354604     1 3.88958362 1.973546 2.549038  0.283135774
##  6     a 0.15814781     1 1.96889481 1.158148 1.674264 -0.580790350
##  7     b 0.69996923     1 2.91540505 3.399938 3.999770  1.758774094
##  8     a 0.47460018     1 1.75315212 1.474600 2.013760 -0.225164855
##  9     a 0.12108729     1 2.37220991 1.121087 1.634504 -0.624112730
## 10     b 0.78128886     1 5.49925048 3.562578 4.164577  1.919222662
## # ... with 190 more rows, and 1 more variables: UPB0.975 <dbl>
…
Like the conditional confidence intervals, the best application for the conditional prediction intervals is showing model fit:

As above, each group should be plotted seperately, since these intervals do not account for between-group variance. Since we are now plotting prediction intervals, there should be no reservations about including the observed data on this plot.

Finally, the unconditional prediction interval:

tb %>% add_pi(fit2, type = "parametric",includeRanef = F)

## # A tibble: 200 x 8
##       x1         x2 group          y    truth     pred   LPB0.025 UPB0.975
##    <chr>      <dbl> <chr>      <dbl>    <dbl>    <dbl>      <dbl>    <dbl>
##  1     b 0.02152605     1 2.35197203 2.043052 2.244516 -0.7000374 5.189069
##  2     a 0.26034694     1 1.67461276 1.260347 1.403618 -1.5253025 4.332539
##  3     b 0.64673143     1 1.97210330 3.293463 3.511589  0.5888177 6.434361
##  4     a 0.69560555     1 0.01130084 1.695606 1.870572 -1.0552476 4.796391
##  5     a 0.97354604     1 3.88958362 1.973546 2.168752 -0.7746687 5.112172
##  6     a 0.15814781     1 1.96889481 1.158148 1.293977 -1.6411001 4.229055
##  7     b 0.69996923     1 2.91540505 3.399938 3.619484  0.6951934 6.543774
##  8     a 0.47460018     1 1.75315212 1.474600 1.633473 -1.2892298 4.556176
##  9     a 0.12108729     1 2.37220991 1.121087 1.254218 -1.6835978 4.192034
## 10     b 0.78128886     1 5.49925048 3.562578 3.784290  0.8566590 6.711921
## # ... with 190 more rows
…
